demo/verilog/sram_tb.vcd
$date
	Fri Jan  3 17:44:39 2020
$end
$version
	Icarus Verilog
$end
$timescale
	100ps
$end
$scope module sram_tb $end
$var reg 1 ! tb_clk $end
$var reg 1 " tb_rx $end
$scope module dut $end
$var wire 1 ! CLK_IN $end
$var wire 1 # CSn $end
$var wire 1 $ PIN_C16_o $end
$var wire 1 % PIN_D16_i $end
$var wire 1 & PIN_E16_o $end
$var wire 1 ' PIN_F16_o $end
$var wire 1 ( PIN_G14_o $end
$var wire 1 ) PIN_G16_o $end
$var wire 1 * PIN_H16_o $end
$var wire 1 + PIN_J15_o $end
$var wire 1 , SCK $end
$var wire 1 - SI $end
$var wire 1 . SIO2 $end
$var wire 1 / SIO3 $end
$var wire 1 0 SO $end
$var wire 1 " UART_RX_i $end
$var wire 1 1 sysclk $end
$var wire 1 2 uart_received $end
$var wire 8 3 sram_data [7:0] $end
$var wire 1 4 sram_completed $end
$var wire 1 5 sram_clk_en $end
$var wire 8 6 rx_data [7:0] $end
$var wire 1 7 LED_D9 $end
$var wire 1 8 LED_D8 $end
$var wire 1 9 LED_D7 $end
$var wire 1 : LED_D6 $end
$var wire 1 ; LED_D5 $end
$var wire 1 < LED_D4 $end
$var wire 1 = LED_D3 $end
$var wire 1 > LED_D2 $end
$var reg 24 ? address [23:0] $end
$var reg 8 @ data [7:0] $end
$var reg 1 A sram_rd_en $end
$var reg 1 B sram_wr_en $end
$var reg 2 C state [1:0] $end
$scope module sram0 $end
$var wire 1 D HOLDn $end
$var wire 1 , SCK $end
$var wire 1 - SI $end
$var wire 1 0 SO $end
$var wire 24 E address_in [23:0] $end
$var wire 1 1 clk $end
$var wire 8 F data_in [7:0] $end
$var wire 8 G data_out [7:0] $end
$var wire 1 A rd_en $end
$var wire 1 B wr_en $end
$var wire 1 H tx_sent $end
$var wire 1 I tx_SCK $end
$var wire 1 J rx_received $end
$var wire 8 K rx_data [7:0] $end
$var wire 1 L rx_SCK $end
$var wire 1 5 clk_en $end
$var reg 1 M CSn $end
$var reg 24 N address [23:0] $end
$var reg 1 4 completed $end
$var reg 8 O data [7:0] $end
$var reg 1 P rx_rd_en $end
$var reg 4 Q state [3:0] $end
$var reg 8 R tx_data [7:0] $end
$var reg 1 S tx_rd_en $end
$scope module rx $end
$var wire 1 1 clk $end
$var wire 1 P rd_en $end
$var wire 1 0 serial_in $end
$var wire 8 T data_out [7:0] $end
$var wire 1 5 clk_en $end
$var reg 1 J received $end
$var reg 1 L serial_clock $end
$var reg 9 U shift_reg [8:0] $end
$var reg 1 V state $end
$upscope $end
$scope module tx $end
$var wire 1 1 clk $end
$var wire 8 W data_in [7:0] $end
$var wire 1 S rd_en $end
$var wire 1 5 clk_en $end
$var reg 3 X counter [2:0] $end
$var reg 1 H sent $end
$var reg 1 I serial_clock $end
$var reg 1 Y serial_out $end
$var reg 8 Z shift_reg [7:0] $end
$var reg 1 [ state $end
$upscope $end
$upscope $end
$scope module sram_clock_enable0 $end
$var wire 1 1 clk $end
$var wire 1 5 en $end
$var reg 4 \ counter [3:0] $end
$upscope $end
$scope module uart0 $end
$var wire 1 1 clk $end
$var wire 1 " rx $end
$var wire 1 ] rx_stable $end
$var wire 8 ^ rx_data [7:0] $end
$var reg 9 _ bits [8:0] $end
$var reg 7 ` counter [6:0] $end
$var reg 1 2 received $end
$var reg 2 a state [1:0] $end
$upscope $end
$upscope $end
$scope task send_byte $end
$var reg 8 b data [7:0] $end
$upscope $end
$upscope $end
$enddefinitions $end
#0
$dumpvars
bx b
b0 a
b0 `
bx _
bx ^
1]
b0 \
0[
bx Z
xY
b0 X
b0 W
0V
bx U
bx T
0S
b0 R
b0 Q
0P
bx O
bx N
1M
0L
bx K
xJ
0I
xH
bx G
b0 F
b0 E
zD
b0 C
0B
0A
b0 @
b0 ?
0>
0=
0<
0;
0:
09
08
07
bx 6
15
x4
bx 3
02
01
z0
z/
z.
x-
0,
z+
z*
z)
z(
z'
z&
z%
z$
1#
1"
0!
$end
#415
05
b1011 \
0H
0J
04
11
1!
#830
01
0!
#1245
b1010 \
11
1!
#1660
01
0!
#2075
b1001 \
11
1!
#2490
01
0!
#2905
b1000 \
11
1!
#3320
01
0!
#3735
b111 \
11
1!
#4150
01
0!
#4565
b110 \
11
1!
#4980
01
0!
#5395
b101 \
11
1!
#5810
01
0!
#6225
b100 \
11
1!
#6640
01
0!
#7055
b11 \
11
1!
#7470
01
0!
#7885
b10 \
11
1!
#8300
01
0!
#8715
b1 \
11
1!
#9130
01
0!
#9545
15
b0 \
11
1!
#9960
01
0!
#10000
0]
0"
b1010101 b
#10375
b1 a
b110011 `
05
b1011 \
11
1!
#10790
01
0!
#11205
b1010 \
b110010 `
11
1!
#11620
01
0!
#12035
b110001 `
b1001 \
11
1!
#12450
01
0!
#12865
b1000 \
b110000 `
11
1!
#13280
01
0!
#13695
b101111 `
b111 \
11
1!
#14110
01
0!
#14525
b110 \
b101110 `
11
1!
#14940
01
0!
#15355
b101101 `
b101 \
11
1!
#15770
01
0!
#16185
b100 \
b101100 `
11
1!
#16600
01
0!
#17015
b101011 `
b11 \
11
1!
#17430
01
0!
#17845
b10 \
b101010 `
11
1!
#18260
01
0!
#18675
b101001 `
b1 \
11
1!
#19090
01
0!
#19505
15
b0 \
b101000 `
11
1!
#19920
01
0!
#20335
b100111 `
05
b1011 \
11
1!
#20750
01
0!
#21165
b1010 \
b100110 `
11
1!
#21580
01
0!
#21995
b100101 `
b1001 \
11
1!
#22410
01
0!
#22825
b1000 \
b100100 `
11
1!
#23240
01
0!
#23655
b100011 `
b111 \
11
1!
#24070
01
0!
#24485
b110 \
b100010 `
11
1!
#24900
01
0!
#25315
b100001 `
b101 \
11
1!
#25730
01
0!
#26145
b100 \
b100000 `
11
1!
#26560
01
0!
#26975
b11111 `
b11 \
11
1!
#27390
01
0!
#27805
b10 \
b11110 `
11
1!
#28220
01
0!
#28635
b11101 `
b1 \
11
1!
#29050
01
0!
#29465
15
b0 \
b11100 `
11
1!
#29880
01
0!
#30295
b11011 `
05
b1011 \
11
1!
#30710
01
0!
#31125
b1010 \
b11010 `
11
1!
#31540
01
0!
#31955
b11001 `
b1001 \
11
1!
#32370
01
0!
#32785
b1000 \
b11000 `
11
1!
#33200
01
0!
#33615
b10111 `
b111 \
11
1!
#34030
01
0!
#34445
b110 \
b10110 `
11
1!
#34860
01
0!
#35275
b10101 `
b101 \
11
1!
#35690
01
0!
#36105
b100 \
b10100 `
11
1!
#36520
01
0!
#36935
b10011 `
b11 \
11
1!
#37350
01
0!
#37765
b10 \
b10010 `
11
1!
#38180
01
0!
#38595
b10001 `
b1 \
11
1!
#39010
01
0!
#39425
15
b0 \
b10000 `
11
1!
#39840
01
0!
#40255
b1111 `
05
b1011 \
11
1!
#40670
01
0!
#41085
b1010 \
b1110 `
11
1!
#41500
01
0!
#41915
b1101 `
b1001 \
11
1!
#42330
01
0!
#42745
b1000 \
b1100 `
11
1!
#43160
01
0!
#43575
b1011 `
b111 \
11
1!
#43990
01
0!
#44405
b110 \
b1010 `
11
1!
#44820
01
0!
#45235
b1001 `
b101 \
11
1!
#45650
01
0!
#46065
b100 \
b1000 `
11
1!
#46480
01
0!
#46895
b111 `
b11 \
11
1!
#47310
01
0!
#47725
b10 \
b110 `
11
1!
#48140
01
0!
#48555
b101 `
b1 \
11
1!
#48970
01
0!
#49385
15
b0 \
b100 `
11
1!
#49800
01
0!
#50215
b11 `
05
b1011 \
11
1!
#50630
01
0!
#51045
b1010 \
b10 `
11
1!
#51460
01
0!
#51875
b1 `
b1001 \
11
1!
#52290
01
0!
#52705
b1000 \
b0 `
11
1!
#53120
01
0!
#53535
b10000000 6
b10000000 ^
b100000000 _
b10 a
b1100111 `
b111 \
11
1!
#53950
01
0!
#54365
b110 \
b1100110 `
11
1!
#54780
01
0!
#55195
b1100101 `
b101 \
11
1!
#55610
01
0!
#56025
b100 \
b1100100 `
11
1!
#56440
01
0!
#56855
b1100011 `
b11 \
11
1!
#57270
01
0!
#57685
b10 \
b1100010 `
11
1!
#58100
01
0!
#58515
b1100001 `
b1 \
11
1!
#58930
01
0!
#59345
15
b0 \
b1100000 `
11
1!
#59760
01
0!
#60175
b1011111 `
05
b1011 \
11
1!
#60590
01
0!
#61005
b1010 \
b1011110 `
11
1!
#61420
01
0!
#61835
b1011101 `
b1001 \
11
1!
#62250
01
0!
#62665
b1000 \
b1011100 `
11
1!
#63080
01
0!
#63495
b1011011 `
b111 \
11
1!
#63910
01
0!
#64325
b110 \
b1011010 `
11
1!
#64740
01
0!
#65155
b1011001 `
b101 \
11
1!
#65570
01
0!
#65985
b100 \
b1011000 `
11
1!
#66400
01
0!
#66815
b1010111 `
b11 \
11
1!
#67230
01
0!
#67645
b10 \
b1010110 `
11
1!
#68060
01
0!
#68475
b1010101 `
b1 \
11
1!
#68890
01
0!
#69305
15
b0 \
b1010100 `
11
1!
#69720
01
0!
#70135
b1010011 `
05
b1011 \
11
1!
#70550
01
0!
#70965
b1010 \
b1010010 `
11
1!
#71380
01
0!
#71795
b1010001 `
b1001 \
11
1!
#72210
01
0!
#72625
b1000 \
b1010000 `
11
1!
#73040
01
0!
#73455
b1001111 `
b111 \
11
1!
#73870
01
0!
#74285
b110 \
b1001110 `
11
1!
#74700
01
0!
#75115
b1001101 `
b101 \
11
1!
#75530
01
0!
#75945
b100 \
b1001100 `
11
1!
#76360
01
0!
#76775
b1001011 `
b11 \
11
1!
#77190
01
0!
#77605
b10 \
b1001010 `
11
1!
#78020
01
0!
#78435
b1001001 `
b1 \
11
1!
#78850
01
0!
#79265
15
b0 \
b1001000 `
11
1!
#79680
01
0!
#80095
b1000111 `
05
b1011 \
11
1!
#80510
01
0!
#80925
b1010 \
b1000110 `
11
1!
#81340
01
0!
#81755
b1000101 `
b1001 \
11
1!
#82170
01
0!
#82585
b1000 \
b1000100 `
11
1!
#83000
01
0!
#83415
b1000011 `
b111 \
11
1!
#83830
01
0!
#84245
b110 \
b1000010 `
11
1!
#84660
01
0!
#85075
b1000001 `
b101 \
11
1!
#85490
01
0!
#85905
b100 \
b1000000 `
11
1!
#86320
01
0!
#86735
b111111 `
b11 \
11
1!
#87150
01
0!
#87565
b10 \
b111110 `
11
1!
#87980
01
0!
#88395
b111101 `
b1 \
11
1!
#88810
01
0!
#89225
15
b0 \
b111100 `
11
1!
#89640
01
0!
#90055
b111011 `
05
b1011 \
11
1!
#90470
01
0!
#90885
b1010 \
b111010 `
11
1!
#91300
01
0!
#91715
b111001 `
b1001 \
11
1!
#92130
01
0!
#92545
b1000 \
b111000 `
11
1!
#92960
01
0!
#93375
b110111 `
b111 \
11
1!
#93790
01
0!
#94205
b110 \
b110110 `
11
1!
#94620
01
0!
#95035
b110101 `
b101 \
11
1!
#95450
01
0!
#95865
b100 \
b110100 `
11
1!
#96280
01
0!
#96320
1]
1"
#96695
b110011 `
b11 \
11
1!
#97110
01
0!
#97525
b10 \
b110010 `
11
1!
#97940
01
0!
#98355
b110001 `
b1 \
11
1!
#98770
01
0!
#99185
15
b0 \
b110000 `
11
1!
#99600
01
0!
#100015
b101111 `
05
b1011 \
11
1!
#100430
01
0!
#100845
b1010 \
b101110 `
11
1!
#101260
01
0!
#101675
b101101 `
b1001 \
11
1!
#102090
01
0!
#102505
b1000 \
b101100 `
11
1!
#102920
01
0!
#103335
b101011 `
b111 \
11
1!
#103750
01
0!
#104165
b110 \
b101010 `
11
1!
#104580
01
0!
#104995
b101001 `
b101 \
11
1!
#105410
01
0!
#105825
b100 \
b101000 `
11
1!
#106240
01
0!
#106655
b100111 `
b11 \
11
1!
#107070
01
0!
#107485
b10 \
b100110 `
11
1!
#107900
01
0!
#108315
b100101 `
b1 \
11
1!
#108730
01
0!
#109145
15
b0 \
b100100 `
11
1!
#109560
01
0!
#109975
b100011 `
05
b1011 \
11
1!
#110390
01
0!
#110805
b1010 \
b100010 `
11
1!
#111220
01
0!
#111635
b100001 `
b1001 \
11
1!
#112050
01
0!
#112465
b1000 \
b100000 `
11
1!
#112880
01
0!
#113295
b11111 `
b111 \
11
1!
#113710
01
0!
#114125
b110 \
b11110 `
11
1!
#114540
01
0!
#114955
b11101 `
b101 \
11
1!
#115370
01
0!
#115785
b100 \
b11100 `
11
1!
#116200
01
0!
#116615
b11011 `
b11 \
11
1!
#117030
01
0!
#117445
b10 \
b11010 `
11
1!
#117860
01
0!
#118275
b11001 `
b1 \
11
1!
#118690
01
0!
#119105
15
b0 \
b11000 `
11
1!
#119520
01
0!
#119935
b10111 `
05
b1011 \
11
1!
#120350
01
0!
#120765
b1010 \
b10110 `
11
1!
#121180
01
0!
#121595
b10101 `
b1001 \
11
1!
#122010
01
0!
#122425
b1000 \
b10100 `
11
1!
#122840
01
0!
#123255
b10011 `
b111 \
11
1!
#123670
01
0!
#124085
b110 \
b10010 `
11
1!
#124500
01
0!
#124915
b10001 `
b101 \
11
1!
#125330
01
0!
#125745
b100 \
b10000 `
11
1!
#126160
01
0!
#126575
b1111 `
b11 \
11
1!
#126990
01
0!
#127405
b10 \
b1110 `
11
1!
#127820
01
0!
#128235
b1101 `
b1 \
11
1!
#128650
01
0!
#129065
15
b0 \
b1100 `
11
1!
#129480
01
0!
#129895
b1011 `
05
b1011 \
11
1!
#130310
01
0!
#130725
b1010 \
b1010 `
11
1!
#131140
01
0!
#131555
b1001 `
b1001 \
11
1!
#131970
01
0!
#132385
b1000 \
b1000 `
11
1!
#132800
01
0!
#133215
b111 `
b111 \
11
1!
#133630
01
0!
#134045
b110 \
b110 `
11
1!
#134460
01
0!
#134875
b101 `
b101 \
11
1!
#135290
01
0!
#135705
b100 \
b100 `
11
1!
#136120
01
0!
#136535
b11 `
b11 \
11
1!
#136950
01
0!
#137365
b10 \
b10 `
11
1!
#137780
01
0!
#138195
b1 `
b1 \
11
1!
#138610
01
0!
#139025
15
b0 \
b0 `
11
1!
#139440
01
0!
#139855
b11000000 6
b11000000 ^
b110000000 _
b1100111 `
05
b1011 \
11
1!
#140270
01
0!
#140685
b1010 \
b1100110 `
11
1!
#141100
01
0!
#141515
b1100101 `
b1001 \
11
1!
#141930
01
0!
#142345
b1000 \
b1100100 `
11
1!
#142760
01
0!
#143175
b1100011 `
b111 \
11
1!
#143590
01
0!
#144005
b110 \
b1100010 `
11
1!
#144420
01
0!
#144835
b1100001 `
b101 \
11
1!
#145250
01
0!
#145665
b100 \
b1100000 `
11
1!
#146080
01
0!
#146495
b1011111 `
b11 \
11
1!
#146910
01
0!
#147325
b10 \
b1011110 `
11
1!
#147740
01
0!
#148155
b1011101 `
b1 \
11
1!
#148570
01
0!
#148985
15
b0 \
b1011100 `
11
1!
#149400
01
0!
#149815
b1011011 `
05
b1011 \
11
1!
#150230
01
0!
#150645
b1010 \
b1011010 `
11
1!
#151060
01
0!
#151475
b1011001 `
b1001 \
11
1!
#151890
01
0!
#152305
b1000 \
b1011000 `
11
1!
#152720
01
0!
#153135
b1010111 `
b111 \
11
1!
#153550
01
0!
#153965
b110 \
b1010110 `
11
1!
#154380
01
0!
#154795
b1010101 `
b101 \
11
1!
#155210
01
0!
#155625
b100 \
b1010100 `
11
1!
#156040
01
0!
#156455
b1010011 `
b11 \
11
1!
#156870
01
0!
#157285
b10 \
b1010010 `
11
1!
#157700
01
0!
#158115
b1010001 `
b1 \
11
1!
#158530
01
0!
#158945
15
b0 \
b1010000 `
11
1!
#159360
01
0!
#159775
b1001111 `
05
b1011 \
11
1!
#160190
01
0!
#160605
b1010 \
b1001110 `
11
1!
#161020
01
0!
#161435
b1001101 `
b1001 \
11
1!
#161850
01
0!
#162265
b1000 \
b1001100 `
11
1!
#162680
01
0!
#163095
b1001011 `
b111 \
11
1!
#163510
01
0!
#163925
b110 \
b1001010 `
11
1!
#164340
01
0!
#164755
b1001001 `
b101 \
11
1!
#165170
01
0!
#165585
b100 \
b1001000 `
11
1!
#166000
01
0!
#166415
b1000111 `
b11 \
11
1!
#166830
01
0!
#167245
b10 \
b1000110 `
11
1!
#167660
01
0!
#168075
b1000101 `
b1 \
11
1!
#168490
01
0!
#168905
15
b0 \
b1000100 `
11
1!
#169320
01
0!
#169735
b1000011 `
05
b1011 \
11
1!
#170150
01
0!
#170565
b1010 \
b1000010 `
11
1!
#170980
01
0!
#171395
b1000001 `
b1001 \
11
1!
#171810
01
0!
#172225
b1000 \
b1000000 `
11
1!
#172640
01
0!
#173055
b111111 `
b111 \
11
1!
#173470
01
0!
#173885
b110 \
b111110 `
11
1!
#174300
01
0!
#174715
b111101 `
b101 \
11
1!
#175130
01
0!
#175545
b100 \
b111100 `
11
1!
#175960
01
0!
#176375
b111011 `
b11 \
11
1!
#176790
01
0!
#177205
b10 \
b111010 `
11
1!
#177620
01
0!
#178035
b111001 `
b1 \
11
1!
#178450
01
0!
#178865
15
b0 \
b111000 `
11
1!
#179280
01
0!
#179695
b110111 `
05
b1011 \
11
1!
#180110
01
0!
#180525
b1010 \
b110110 `
11
1!
#180940
01
0!
#181355
b110101 `
b1001 \
11
1!
#181770
01
0!
#182185
b1000 \
b110100 `
11
1!
#182600
01
0!
#182640
0]
0"
#183015
b110011 `
b111 \
11
1!
#183430
01
0!
#183845
b110 \
b110010 `
11
1!
#184260
01
0!
#184675
b110001 `
b101 \
11
1!
#185090
01
0!
#185505
b100 \
b110000 `
11
1!
#185920
01
0!
#186335
b101111 `
b11 \
11
1!
#186750
01
0!
#187165
b10 \
b101110 `
11
1!
#187580
01
0!
#187995
b101101 `
b1 \
11
1!
#188410
01
0!
#188825
15
b0 \
b101100 `
11
1!
#189240
01
0!
#189655
b101011 `
05
b1011 \
11
1!
#190070
01
0!
#190485
b1010 \
b101010 `
11
1!
#190900
01
0!
#191315
b101001 `
b1001 \
11
1!
#191730
01
0!
#192145
b1000 \
b101000 `
11
1!
#192560
01
0!
#192975
b100111 `
b111 \
11
1!
#193390
01
0!
#193805
b110 \
b100110 `
11
1!
#194220
01
0!
#194635
b100101 `
b101 \
11
1!
#195050
01
0!
#195465
b100 \
b100100 `
11
1!
#195880
01
0!
#196295
b100011 `
b11 \
11
1!
#196710
01
0!
#197125
b10 \
b100010 `
11
1!
#197540
01
0!
#197955
b100001 `
b1 \
11
1!
#198370
01
0!
#198785
15
b0 \
b100000 `
11
1!
#199200
01
0!
#199615
b11111 `
05
b1011 \
11
1!
#200030
01
0!
#200445
b1010 \
b11110 `
11
1!
#200860
01
0!
#201275
b11101 `
b1001 \
11
1!
#201690
01
0!
#202105
b1000 \
b11100 `
11
1!
#202520
01
0!
#202935
b11011 `
b111 \
11
1!
#203350
01
0!
#203765
b110 \
b11010 `
11
1!
#204180
01
0!
#204595
b11001 `
b101 \
11
1!
#205010
01
0!
#205425
b100 \
b11000 `
11
1!
#205840
01
0!
#206255
b10111 `
b11 \
11
1!
#206670
01
0!
#207085
b10 \
b10110 `
11
1!
#207500
01
0!
#207915
b10101 `
b1 \
11
1!
#208330
01
0!
#208745
15
b0 \
b10100 `
11
1!
#209160
01
0!
#209575
b10011 `
05
b1011 \
11
1!
#209990
01
0!
#210405
b1010 \
b10010 `
11
1!
#210820
01
0!
#211235
b10001 `
b1001 \
11
1!
#211650
01
0!
#212065
b1000 \
b10000 `
11
1!
#212480
01
0!
#212895
b1111 `
b111 \
11
1!
#213310
01
0!
#213725
b110 \
b1110 `
11
1!
#214140
01
0!
#214555
b1101 `
b101 \
11
1!
#214970
01
0!
#215385
b100 \
b1100 `
11
1!
#215800
01
0!
#216215
b1011 `
b11 \
11
1!
#216630
01
0!
#217045
b10 \
b1010 `
11
1!
#217460
01
0!
#217875
b1001 `
b1 \
11
1!
#218290
01
0!
#218705
15
b0 \
b1000 `
11
1!
#219120
01
0!
#219535
b111 `
05
b1011 \
11
1!
#219950
01
0!
#220365
b1010 \
b110 `
11
1!
#220780
01
0!
#221195
b101 `
b1001 \
11
1!
#221610
01
0!
#222025
b1000 \
b100 `
11
1!
#222440
01
0!
#222855
b11 `
b111 \
11
1!
#223270
01
0!
#223685
b110 \
b10 `
11
1!
#224100
01
0!
#224515
b1 `
b101 \
11
1!
#224930
01
0!
#225345
b100 \
b0 `
11
1!
#225760
01
0!
#226175
b1100000 6
b1100000 ^
b11000000 _
b1100111 `
b11 \
11
1!
#226590
01
0!
#227005
b10 \
b1100110 `
11
1!
#227420
01
0!
#227835
b1100101 `
b1 \
11
1!
#228250
01
0!
#228665
15
b0 \
b1100100 `
11
1!
#229080
01
0!
#229495
b1100011 `
05
b1011 \
11
1!
#229910
01
0!
#230325
b1010 \
b1100010 `
11
1!
#230740
01
0!
#231155
b1100001 `
b1001 \
11
1!
#231570
01
0!
#231985
b1000 \
b1100000 `
11
1!
#232400
01
0!
#232815
b1011111 `
b111 \
11
1!
#233230
01
0!
#233645
b110 \
b1011110 `
11
1!
#234060
01
0!
#234475
b1011101 `
b101 \
11
1!
#234890
01
0!
#235305
b100 \
b1011100 `
11
1!
#235720
01
0!
#236135
b1011011 `
b11 \
11
1!
#236550
01
0!
#236965
b10 \
b1011010 `
11
1!
#237380
01
0!
#237795
b1011001 `
b1 \
11
1!
#238210
01
0!
#238625
15
b0 \
b1011000 `
11
1!
#239040
01
0!
#239455
b1010111 `
05
b1011 \
11
1!
#239870
01
0!
#240285
b1010 \
b1010110 `
11
1!
#240700
01
0!
#241115
b1010101 `
b1001 \
11
1!
#241530
01
0!
#241945
b1000 \
b1010100 `
11
1!
#242360
01
0!
#242775
b1010011 `
b111 \
11
1!
#243190
01
0!
#243605
b110 \
b1010010 `
11
1!
#244020
01
0!
#244435
b1010001 `
b101 \
11
1!
#244850
01
0!
#245265
b100 \
b1010000 `
11
1!
#245680
01
0!
#246095
b1001111 `
b11 \
11
1!
#246510
01
0!
#246925
b10 \
b1001110 `
11
1!
#247340
01
0!
#247755
b1001101 `
b1 \
11
1!
#248170
01
0!
#248585
15
b0 \
b1001100 `
11
1!
#249000
01
0!
#249415
b1001011 `
05
b1011 \
11
1!
#249830
01
0!
#250245
b1010 \
b1001010 `
11
1!
#250660
01
0!
#251075
b1001001 `
b1001 \
11
1!
#251490
01
0!
#251905
b1000 \
b1001000 `
11
1!
#252320
01
0!
#252735
b1000111 `
b111 \
11
1!
#253150
01
0!
#253565
b110 \
b1000110 `
11
1!
#253980
01
0!
#254395
b1000101 `
b101 \
11
1!
#254810
01
0!
#255225
b100 \
b1000100 `
11
1!
#255640
01
0!
#256055
b1000011 `
b11 \
11
1!
#256470
01
0!
#256885
b10 \
b1000010 `
11
1!
#257300
01
0!
#257715
b1000001 `
b1 \
11
1!
#258130
01
0!
#258545
15
b0 \
b1000000 `
11
1!
#258960
01
0!
#259375
b111111 `
05
b1011 \
11
1!
#259790
01
0!
#260205
b1010 \
b111110 `
11
1!
#260620
01
0!
#261035
b111101 `
b1001 \
11
1!
#261450
01
0!
#261865
b1000 \
b111100 `
11
1!
#262280
01
0!
#262695
b111011 `
b111 \
11
1!
#263110
01
0!
#263525
b110 \
b111010 `
11
1!
#263940
01
0!
#264355
b111001 `
b101 \
11
1!
#264770
01
0!
#265185
b100 \
b111000 `
11
1!
#265600
01
0!
#266015
b110111 `
b11 \
11
1!
#266430
01
0!
#266845
b10 \
b110110 `
11
1!
#267260
01
0!
#267675
b110101 `
b1 \
11
1!
#268090
01
0!
#268505
15
b0 \
b110100 `
11
1!
#268920
01
0!
#268960
1]
1"
#269335
b110011 `
05
b1011 \
11
1!
#269750
01
0!
#270165
b1010 \
b110010 `
11
1!
#270580
01
0!
#270995
b110001 `
b1001 \
11
1!
#271410
01
0!
#271825
b1000 \
b110000 `
11
1!
#272240
01
0!
#272655
b101111 `
b111 \
11
1!
#273070
01
0!
#273485
b110 \
b101110 `
11
1!
#273900
01
0!
#274315
b101101 `
b101 \
11
1!
#274730
01
0!
#275145
b100 \
b101100 `
11
1!
#275560
01
0!
#275975
b101011 `
b11 \
11
1!
#276390
01
0!
#276805
b10 \
b101010 `
11
1!
#277220
01
0!
#277635
b101001 `
b1 \
11
1!
#278050
01
0!
#278465
15
b0 \
b101000 `
11
1!
#278880
01
0!
#279295
b100111 `
05
b1011 \
11
1!
#279710
01
0!
#280125
b1010 \
b100110 `
11
1!
#280540
01
0!
#280955
b100101 `
b1001 \
11
1!
#281370
01
0!
#281785
b1000 \
b100100 `
11
1!
#282200
01
0!
#282615
b100011 `
b111 \
11
1!
#283030
01
0!
#283445
b110 \
b100010 `
11
1!
#283860
01
0!
#284275
b100001 `
b101 \
11
1!
#284690
01
0!
#285105
b100 \
b100000 `
11
1!
#285520
01
0!
#285935
b11111 `
b11 \
11
1!
#286350
01
0!
#286765
b10 \
b11110 `
11
1!
#287180
01
0!
#287595
b11101 `
b1 \
11
1!
#288010
01
0!
#288425
15
b0 \
b11100 `
11
1!
#288840
01
0!
#289255
b11011 `
05
b1011 \
11
1!
#289670
01
0!
#290085
b1010 \
b11010 `
11
1!
#290500
01
0!
#290915
b11001 `
b1001 \
11
1!
#291330
01
0!
#291745
b1000 \
b11000 `
11
1!
#292160
01
0!
#292575
b10111 `
b111 \
11
1!
#292990
01
0!
#293405
b110 \
b10110 `
11
1!
#293820
01
0!
#294235
b10101 `
b101 \
11
1!
#294650
01
0!
#295065
b100 \
b10100 `
11
1!
#295480
01
0!
#295895
b10011 `
b11 \
11
1!
#296310
01
0!
#296725
b10 \
b10010 `
11
1!
#297140
01
0!
#297555
b10001 `
b1 \
11
1!
#297970
01
0!
#298385
15
b0 \
b10000 `
11
1!
#298800
01
0!
#299215
b1111 `
05
b1011 \
11
1!
#299630
01
0!
#300045
b1010 \
b1110 `
11
1!
#300460
01
0!
#300875
b1101 `
b1001 \
11
1!
#301290
01
0!
#301705
b1000 \
b1100 `
11
1!
#302120
01
0!
#302535
b1011 `
b111 \
11
1!
#302950
01
0!
#303365
b110 \
b1010 `
11
1!
#303780
01
0!
#304195
b1001 `
b101 \
11
1!
#304610
01
0!
#305025
b100 \
b1000 `
11
1!
#305440
01
0!
#305855
b111 `
b11 \
11
1!
#306270
01
0!
#306685
b10 \
b110 `
11
1!
#307100
01
0!
#307515
b101 `
b1 \
11
1!
#307930
01
0!
#308345
15
b0 \
b100 `
11
1!
#308760
01
0!
#309175
b11 `
05
b1011 \
11
1!
#309590
01
0!
#310005
b1010 \
b10 `
11
1!
#310420
01
0!
#310835
b1 `
b1001 \
11
1!
#311250
01
0!
#311665
b1000 \
b0 `
11
1!
#312080
01
0!
#312495
b10110000 6
b10110000 ^
b101100000 _
b1100111 `
b111 \
11
1!
#312910
01
0!
#313325
b110 \
b1100110 `
11
1!
#313740
01
0!
#314155
b1100101 `
b101 \
11
1!
#314570
01
0!
#314985
b100 \
b1100100 `
11
1!
#315400
01
0!
#315815
b1100011 `
b11 \
11
1!
#316230
01
0!
#316645
b10 \
b1100010 `
11
1!
#317060
01
0!
#317475
b1100001 `
b1 \
11
1!
#317890
01
0!
#318305
15
b0 \
b1100000 `
11
1!
#318720
01
0!
#319135
b1011111 `
05
b1011 \
11
1!
#319550
01
0!
#319965
b1010 \
b1011110 `
11
1!
#320380
01
0!
#320795
b1011101 `
b1001 \
11
1!
#321210
01
0!
#321625
b1000 \
b1011100 `
11
1!
#322040
01
0!
#322455
b1011011 `
b111 \
11
1!
#322870
01
0!
#323285
b110 \
b1011010 `
11
1!
#323700
01
0!
#324115
b1011001 `
b101 \
11
1!
#324530
01
0!
#324945
b100 \
b1011000 `
11
1!
#325360
01
0!
#325775
b1010111 `
b11 \
11
1!
#326190
01
0!
#326605
b10 \
b1010110 `
11
1!
#327020
01
0!
#327435
b1010101 `
b1 \
11
1!
#327850
01
0!
#328265
15
b0 \
b1010100 `
11
1!
#328680
01
0!
#329095
b1010011 `
05
b1011 \
11
1!
#329510
01
0!
#329925
b1010 \
b1010010 `
11
1!
#330340
01
0!
#330755
b1010001 `
b1001 \
11
1!
#331170
01
0!
#331585
b1000 \
b1010000 `
11
1!
#332000
01
0!
#332415
b1001111 `
b111 \
11
1!
#332830
01
0!
#333245
b110 \
b1001110 `
11
1!
#333660
01
0!
#334075
b1001101 `
b101 \
11
1!
#334490
01
0!
#334905
b100 \
b1001100 `
11
1!
#335320
01
0!
#335735
b1001011 `
b11 \
11
1!
#336150
01
0!
#336565
b10 \
b1001010 `
11
1!
#336980
01
0!
#337395
b1001001 `
b1 \
11
1!
#337810
01
0!
#338225
15
b0 \
b1001000 `
11
1!
#338640
01
0!
#339055
b1000111 `
05
b1011 \
11
1!
#339470
01
0!
#339885
b1010 \
b1000110 `
11
1!
#340300
01
0!
#340715
b1000101 `
b1001 \
11
1!
#341130
01
0!
#341545
b1000 \
b1000100 `
11
1!
#341960
01
0!
#342375
b1000011 `
b111 \
11
1!
#342790
01
0!
#343205
b110 \
b1000010 `
11
1!
#343620
01
0!
#344035
b1000001 `
b101 \
11
1!
#344450
01
0!
#344865
b100 \
b1000000 `
11
1!
#345280
01
0!
#345695
b111111 `
b11 \
11
1!
#346110
01
0!
#346525
b10 \
b111110 `
11
1!
#346940
01
0!
#347355
b111101 `
b1 \
11
1!
#347770
01
0!
#348185
15
b0 \
b111100 `
11
1!
#348600
01
0!
#349015
b111011 `
05
b1011 \
11
1!
#349430
01
0!
#349845
b1010 \
b111010 `
11
1!
#350260
01
0!
#350675
b111001 `
b1001 \
11
1!
#351090
01
0!
#351505
b1000 \
b111000 `
11
1!
#351920
01
0!
#352335
b110111 `
b111 \
11
1!
#352750
01
0!
#353165
b110 \
b110110 `
11
1!
#353580
01
0!
#353995
b110101 `
b101 \
11
1!
#354410
01
0!
#354825
b100 \
b110100 `
11
1!
#355240
01
0!
#355280
0]
0"
#355655
b110011 `
b11 \
11
1!
#356070
01
0!
#356485
b10 \
b110010 `
11
1!
#356900
01
0!
